<svg width="24" height="24" viewBox="0 0 24 24" fill="none" xmlns="http://www.w3.org/2000/svg">
<path d="M19.5162 16.5162C18.9873 16.524 18.4698 16.6714 18.0162 16.9437L15.6987 14.6262C16.8074 13.0656 16.8074 10.9743 15.6987 9.4137L18.0162 7.0887C19.3183 7.85136 20.9843 7.52807 21.9067 6.33372C22.8291 5.13938 22.7208 3.44577 21.6537 2.37871C20.5866 1.31164 18.893 1.20329 17.6987 2.12567C16.5043 3.04805 16.181 4.71405 16.9437 6.0162L14.6262 8.3337C13.0656 7.22495 10.9743 7.22495 9.4137 8.3337L7.0887 6.0162C7.85136 4.71405 7.52807 3.04805 6.33372 2.12567C5.13938 1.20329 3.44577 1.31164 2.37871 2.37871C1.31164 3.44577 1.20329 5.13938 2.12567 6.33372C3.04805 7.52807 4.71405 7.85136 6.0162 7.0887L8.3337 9.4062C7.22495 10.9668 7.22495 13.0581 8.3337 14.6187L6.0162 16.9437C4.71405 16.181 3.04805 16.5043 2.12567 17.6987C1.20329 18.893 1.31164 20.5866 2.37871 21.6537C3.44577 22.7208 5.13938 22.8291 6.33372 21.9067C7.52807 20.9843 7.85136 19.3183 7.0887 18.0162L9.4062 15.6987C10.9668 16.8074 13.0581 16.8074 14.6187 15.6987L16.9437 18.0162C16.2637 19.1942 16.4612 20.6823 17.4251 21.642C18.389 22.6017 19.878 22.7928 21.053 22.1077C22.228 21.4226 22.795 20.0326 22.4346 18.721C22.0741 17.4095 20.8763 16.5046 19.5162 16.5162ZM19.5162 3.0162C20.3446 3.0162 21.0162 3.68777 21.0162 4.5162C21.0162 5.34463 20.3446 6.0162 19.5162 6.0162C18.6878 6.0162 18.0162 5.34463 18.0162 4.5162C18.0162 3.68777 18.6878 3.0162 19.5162 3.0162ZM3.0162 4.5162C3.0162 3.68777 3.68777 3.0162 4.5162 3.0162C5.34463 3.0162 6.0162 3.68777 6.0162 4.5162C6.0162 5.34463 5.34463 6.0162 4.5162 6.0162C4.11837 6.0162 3.73684 5.85816 3.45554 5.57686C3.17423 5.29555 3.0162 4.91402 3.0162 4.5162ZM4.5162 21.0162C3.68777 21.0162 3.0162 20.3446 3.0162 19.5162C3.0162 18.6878 3.68777 18.0162 4.5162 18.0162C5.34463 18.0162 6.0162 18.6878 6.0162 19.5162C6.0162 20.3446 5.34463 21.0162 4.5162 21.0162ZM12.0162 15.0162C10.3593 15.0162 9.0162 13.6731 9.0162 12.0162C9.0162 10.3593 10.3593 9.0162 12.0162 9.0162C13.6731 9.0162 15.0162 10.3593 15.0162 12.0162C15.0162 12.8118 14.7001 13.5749 14.1375 14.1375C13.5749 14.7001 12.8118 15.0162 12.0162 15.0162ZM19.5162 21.0162C18.6878 21.0162 18.0162 20.3446 18.0162 19.5162C18.0162 18.6878 18.6878 18.0162 19.5162 18.0162C20.3446 18.0162 21.0162 18.6878 21.0162 19.5162C21.0162 20.3446 20.3446 21.0162 19.5162 21.0162Z" fill="#72D4B9"/>
</svg>
